{
    "ChurnValue": {
        "preprocessing": {
            "fill_value": 0,
            "missing_value_strategy": "fill_with_const"
        }
    },
    "Gender": {
        "idx2str": [
            "<UNK>",
            "Male",
            "Female"
        ],
        "preprocessing": {
            "fill_value": "<UNK>",
            "lowercase": false,
            "missing_value_strategy": "fill_with_const",
            "most_common": 10000
        },
        "str2freq": {
            "<UNK>": 0,
            "Female": 3488,
            "Male": 3555
        },
        "str2idx": {
            "<UNK>": 0,
            "Female": 2,
            "Male": 1
        },
        "vocab_size": 3
    },
    "data_train_hdf5_fp": "train_simple.hdf5"
}