{
    "Age": {
        "preprocessing": {
            "fill_value": 0,
            "missing_value_strategy": "fill_with_const",
            "normalization": null
        }
    },
    "BMI": {
        "preprocessing": {
            "fill_value": 0,
            "missing_value_strategy": "fill_with_const",
            "normalization": null
        }
    },
    "BloodPressure": {
        "preprocessing": {
            "fill_value": 0,
            "missing_value_strategy": "fill_with_const",
            "normalization": null
        }
    },
    "DiabetesPedigreeFunction": {
        "preprocessing": {
            "fill_value": 0,
            "missing_value_strategy": "fill_with_const",
            "normalization": null
        }
    },
    "Glucose": {
        "preprocessing": {
            "fill_value": 0,
            "missing_value_strategy": "fill_with_const",
            "normalization": null
        }
    },
    "Insulin": {
        "preprocessing": {
            "fill_value": 0,
            "missing_value_strategy": "fill_with_const",
            "normalization": null
        }
    },
    "Outcome": {
        "preprocessing": {
            "fill_value": 0,
            "missing_value_strategy": "fill_with_const"
        }
    },
    "Pregnancies": {
        "preprocessing": {
            "fill_value": 0,
            "missing_value_strategy": "fill_with_const",
            "normalization": null
        }
    },
    "SkinThickness": {
        "preprocessing": {
            "fill_value": 0,
            "missing_value_strategy": "fill_with_const",
            "normalization": null
        }
    },
    "data_train_hdf5_fp": "./train.hdf5"
}